<svg xmlns="http://www.w3.org/2000/svg" width="32" height="32" viewBox="0 0 32 32">
    <path fill="#CFD8DC" fill-rule="nonzero" d="M16.03 23.487l6.36 3.522-1.219-7.486 5.306-5.448-7.318-1.12-3.13-6.679-3.129 6.679-7.318 1.12 5.305 5.448L9.67 27.01l6.36-3.522zm0 3.047L6.158 32l1.885-11.578-7.985-8.2 11.035-1.688L16.03 0l4.936 10.534L32 12.223l-7.985 8.2L25.9 32l-9.87-5.466z"/>
</svg>
